\relax 
\providecommand\hyper@newdestlabel[2]{}
\providecommand\HyperFirstAtBeginDocument{\AtBeginDocument}
\HyperFirstAtBeginDocument{\ifx\hyper@anchor\@undefined
\global\let\oldcontentsline\contentsline
\gdef\contentsline#1#2#3#4{\oldcontentsline{#1}{#2}{#3}}
\global\let\oldnewlabel\newlabel
\gdef\newlabel#1#2{\newlabelxx{#1}#2}
\gdef\newlabelxx#1#2#3#4#5#6{\oldnewlabel{#1}{{#2}{#3}}}
\AtEndDocument{\ifx\hyper@anchor\@undefined
\let\contentsline\oldcontentsline
\let\newlabel\oldnewlabel
\fi}
\fi}
\global\let\hyper@last\relax 
\gdef\HyperFirstAtBeginDocument#1{#1}
\providecommand\HyField@AuxAddToFields[1]{}
\providecommand\HyField@AuxAddToCoFields[2]{}
\bibstyle{SciPost_bibstyle}
\citation{Pethick2008,Pitaevskii2016}
\citation{Ebner1971}
\citation{Anderson1995,Davis1995,Bradley1995}
\citation{Chin2010}
\citation{Mewes1996,Jin1996}
\citation{Pitaevskii2016}
\citation{Stamper-Kurn1998,Buggle2005}
\citation{Altmeyer2007,Wright2007}
\citation{Stringari1996,Chevy2002}
\citation{Kinast2004,Bartenstein2004,Altmeyer2007a}
\@writefile{toc}{\contentsline {section}{\numberline {1}Introduction}{1}{section.1}}
\citation{Busch1997,Esry1998,Ho1998,Hall1998a,Bijlsma2000,Capuzzi2001,Yip2001,Goral2002,Pu2002,Svidzinsky2003,Liu2003,Deconinck2004,Rodriguez2004,Navarro2009}
\citation{Vichi1999,Maddaloni2000,Gensemer2001}
\citation{Ferrier-Barbut2014,Delehaye2015,Roy2017,Wu2018}
\citation{DeSalvo2019}
\citation{Modugno2002,Ospelkaus2006}
\citation{Ospelkaus2006a,Papp2008,Shin2008,Lous2018}
\citation{Sommer2011,Valtolina2016}
\citation{Huang2019}
\citation{Stoner1933,Jo2009,Cui2010,Pilati2010,Massignan2011,Chang2011,Pekker2011,Sommer2011,Sanner2012,Massignan2014,Trappe2016,Valtolina2016,Amico2018}
\citation{Sanner2012}
\citation{Chin2010}
\citation{Jo2009}
\citation{Sommer2011,Valtolina2016}
\citation{Vichi1999,Bruun2001,Maruyama2006,Maruyama2007,DeSilva2005}
\citation{Grochowski2017a}
\citation{Gawryluk2017,Grochowski2017a}
\citation{VonStecher2007,Grochowski2017a}
\citation{Grochowski2017a}
\@writefile{toc}{\contentsline {section}{\numberline {2}Time-dependent Hartree-Fock calculations}{3}{section.2}}
\newlabel{tdhf}{{2}{3}{Time-dependent Hartree-Fock calculations}{section.2}{}}
\newlabel{Slater}{{1}{3}{Time-dependent Hartree-Fock calculations}{equation.2.1}{}}
\newlabel{HFeq}{{2}{3}{Time-dependent Hartree-Fock calculations}{equation.2.2}{}}
\citation{Gawryluk2017}
\citation{Vichi1999}
\@writefile{toc}{\contentsline {subsection}{\numberline {2.1}Initial states -- imaginary time propagation}{4}{subsection.2.1}}
\@writefile{toc}{\contentsline {subsection}{\numberline {2.2}Monopole compression mode}{4}{subsection.2.2}}
\citation{Vichi1999}
\citation{Vichi1999}
\citation{Vichi1999}
\citation{Trappe2016}
\citation{Trappe2016}
\@writefile{lof}{\contentsline {figure}{\numberline {1}{\ignorespaces Ground-state densities for different values of interaction strength. For weak interaction, clouds stay unpolarized, but for some critical value of repulsion, they enter the ferromagnetic phase. Initially, just above the transition, gas becomes partially polarized only in the center of the trap, being unpolarized on the perimeter. For strong enough interaction, the overlapping part vanishes, leaving the clouds fully separated. }}{5}{figure.1}}
\newlabel{l1}{{1}{5}{Ground-state densities for different values of interaction strength. For weak interaction, clouds stay unpolarized, but for some critical value of repulsion, they enter the ferromagnetic phase. Initially, just above the transition, gas becomes partially polarized only in the center of the trap, being unpolarized on the perimeter. For strong enough interaction, the overlapping part vanishes, leaving the clouds fully separated}{figure.1}{}}
\@writefile{lof}{\contentsline {figure}{\numberline {2}{\ignorespaces Frequency of a monopole mode calculated with the help of four different methods within the nonrenormalized mean field regime: sum rule approach from Ref.\nobreakspace  {}\cite  {Vichi1999} using noninteracting and interacting Thomas-Fermi ground-state density profiles, linearized hydrodynamic equations and time-dependent Hartree-Fock equations. We can see that the latter three give very similar results, while the first on greatly overestimates the frequencies. }}{6}{figure.2}}
\newlabel{comp}{{2}{6}{Frequency of a monopole mode calculated with the help of four different methods within the nonrenormalized mean field regime: sum rule approach from Ref.~\cite {Vichi1999} using noninteracting and interacting Thomas-Fermi ground-state density profiles, linearized hydrodynamic equations and time-dependent Hartree-Fock equations. We can see that the latter three give very similar results, while the first on greatly overestimates the frequencies}{figure.2}{}}
\@writefile{toc}{\contentsline {paragraph}{In-phase oscillations}{6}{paragraph*.1}}
\@writefile{lof}{\contentsline {figure}{\numberline {3}{\ignorespaces  Frequency of a monopole mode for in-phase perturbation of both fermionic species for varying interaction strength. The critical interaction for which the phase separation occurs reads $k_F a \approx 0.9$. In each of Figs. 3-8 that show consecutive type of oscillations, we present two results. Firstly, filled markers (circles, squares, triangles) are associated with the frequencies that can be recovered from the fit to a sum of sines. Such a fit cannot be meaningfully performed for every interaction regime, especially after the transitions, therefore we additionally present Fourier transform of the oscillation run for each of the interaction values. This transform is normalized in such a way that for every interaction strength, the maximum value of transform's absolute value is equaled to $1$. For better visibility, we decide to plot not the absolute value of the FT, but rather FT brought to power $1/3$. }}{7}{figure.3}}
\newlabel{in_phase_radial}{{3}{7}{Frequency of a monopole mode for in-phase perturbation of both fermionic species for varying interaction strength. The critical interaction for which the phase separation occurs reads $k_F a \approx 0.9$. In each of Figs. 3-8 that show consecutive type of oscillations, we present two results. Firstly, filled markers (circles, squares, triangles) are associated with the frequencies that can be recovered from the fit to a sum of sines. Such a fit cannot be meaningfully performed for every interaction regime, especially after the transitions, therefore we additionally present Fourier transform of the oscillation run for each of the interaction values. This transform is normalized in such a way that for every interaction strength, the maximum value of transform's absolute value is equaled to $1$. For better visibility, we decide to plot not the absolute value of the FT, but rather FT brought to power $1/3$}{figure.3}{}}
\@writefile{toc}{\contentsline {paragraph}{Out-of-phase oscillations}{7}{paragraph*.2}}
\@writefile{lof}{\contentsline {figure}{\numberline {4}{\ignorespaces  Frequency of a monopole mode for out-of-phase perturbation of both fermionic species for varying interaction strength. }}{8}{figure.4}}
\newlabel{out_of_phase_radial}{{4}{8}{Frequency of a monopole mode for out-of-phase perturbation of both fermionic species for varying interaction strength}{figure.4}{}}
\@writefile{toc}{\contentsline {subsection}{\numberline {2.3}Radial modes}{8}{subsection.2.3}}
\@writefile{lof}{\contentsline {figure}{\numberline {5}{\ignorespaces  Frequency of a radial compression mode for in-phase perturbation of both fermionic species for varying interaction strength. }}{9}{figure.5}}
\newlabel{in_phase_quad_rad}{{5}{9}{Frequency of a radial compression mode for in-phase perturbation of both fermionic species for varying interaction strength}{figure.5}{}}
\@writefile{lof}{\contentsline {figure}{\numberline {6}{\ignorespaces  Frequency of a radial compression mode for out-of-phase perturbation of both fermionic species for varying interaction strength. }}{9}{figure.6}}
\newlabel{out_of_phase_quad_rad}{{6}{9}{Frequency of a radial compression mode for out-of-phase perturbation of both fermionic species for varying interaction strength}{figure.6}{}}
\citation{Domps1998}
\citation{Karpiuk2002}
\@writefile{lof}{\contentsline {figure}{\numberline {7}{\ignorespaces  Frequency of radial quadrupole mode for in-phase perturbation of both fermionic species for varying interaction strength. }}{10}{figure.7}}
\newlabel{in_phase_quad_xy}{{7}{10}{Frequency of radial quadrupole mode for in-phase perturbation of both fermionic species for varying interaction strength}{figure.7}{}}
\@writefile{lof}{\contentsline {figure}{\numberline {8}{\ignorespaces  Frequency of radial quadrupole mode for out-of-phase perturbation of both fermionic species for varying interaction strength. }}{10}{figure.8}}
\newlabel{out_of_phase_quad_xy}{{8}{10}{Frequency of radial quadrupole mode for out-of-phase perturbation of both fermionic species for varying interaction strength}{figure.8}{}}
\@writefile{toc}{\contentsline {section}{\numberline {3}Comparison to hydrodynamic approach}{10}{section.3}}
\newlabel{hyd}{{3}{10}{Comparison to hydrodynamic approach}{section.3}{}}
\citation{Trappe2016}
\citation{Madelung1927}
\newlabel{TwoCompPsi}{{12}{11}{Comparison to hydrodynamic approach}{equation.3.12}{}}
\newlabel{TwoCompMadelungHydro}{{13}{11}{Comparison to hydrodynamic approach}{equation.3.13}{}}
\newlabel{pseudopsi}{{14}{11}{Comparison to hydrodynamic approach}{equation.3.14}{}}
\bibdata{Oscillations.bib}
\bibcite{Pethick2008}{1}
\bibcite{Pitaevskii2016}{2}
\bibcite{Ebner1971}{3}
\bibcite{Anderson1995}{4}
\@writefile{toc}{\contentsline {section}{\numberline {4}Conclusions}{12}{section.4}}
\newlabel{conc}{{4}{12}{Conclusions}{section.4}{}}
\@writefile{toc}{\contentsline {paragraph}{Funding information}{12}{paragraph*.3}}
\@writefile{toc}{\contentsline {section}{References}{12}{paragraph*.3}}
\bibcite{Davis1995}{5}
\bibcite{Bradley1995}{6}
\bibcite{Chin2010}{7}
\bibcite{Mewes1996}{8}
\bibcite{Jin1996}{9}
\bibcite{Stamper-Kurn1998}{10}
\bibcite{Buggle2005}{11}
\bibcite{Altmeyer2007}{12}
\bibcite{Wright2007}{13}
\bibcite{Stringari1996}{14}
\bibcite{Chevy2002}{15}
\bibcite{Kinast2004}{16}
\bibcite{Bartenstein2004}{17}
\bibcite{Altmeyer2007a}{18}
\bibcite{Busch1997}{19}
\bibcite{Esry1998}{20}
\bibcite{Ho1998}{21}
\bibcite{Hall1998a}{22}
\bibcite{Bijlsma2000}{23}
\bibcite{Capuzzi2001}{24}
\bibcite{Yip2001}{25}
\bibcite{Goral2002}{26}
\bibcite{Pu2002}{27}
\bibcite{Svidzinsky2003}{28}
\bibcite{Liu2003}{29}
\bibcite{Deconinck2004}{30}
\bibcite{Rodriguez2004}{31}
\bibcite{Navarro2009}{32}
\bibcite{Vichi1999}{33}
\bibcite{Maddaloni2000}{34}
\bibcite{Gensemer2001}{35}
\bibcite{Ferrier-Barbut2014}{36}
\bibcite{Delehaye2015}{37}
\bibcite{Roy2017}{38}
\bibcite{Wu2018}{39}
\bibcite{DeSalvo2019}{40}
\bibcite{Modugno2002}{41}
\bibcite{Ospelkaus2006}{42}
\bibcite{Ospelkaus2006a}{43}
\bibcite{Papp2008}{44}
\bibcite{Shin2008}{45}
\bibcite{Lous2018}{46}
\bibcite{Sommer2011}{47}
\bibcite{Valtolina2016}{48}
\bibcite{Huang2019}{49}
\bibcite{Stoner1933}{50}
\bibcite{Jo2009}{51}
\bibcite{Cui2010}{52}
\bibcite{Pilati2010}{53}
\bibcite{Massignan2011}{54}
\bibcite{Chang2011}{55}
\bibcite{Pekker2011}{56}
\bibcite{Sanner2012}{57}
\bibcite{Massignan2014}{58}
\bibcite{Trappe2016}{59}
\bibcite{Amico2018}{60}
\bibcite{Bruun2001}{61}
\bibcite{Maruyama2006}{62}
\bibcite{Maruyama2007}{63}
\bibcite{DeSilva2005}{64}
\bibcite{Grochowski2017a}{65}
\bibcite{Gawryluk2017}{66}
\bibcite{VonStecher2007}{67}
\bibcite{Domps1998}{68}
\bibcite{Karpiuk2002}{69}
\bibcite{Madelung1927}{70}
