This is BibTeX, Version 0.99d (TeX Live 2017/Debian)
Capacity: max_strings=100000, hash_size=100000, hash_prime=85009
The top-level auxiliary file: oscs.aux
The style file: apsrev4-1.bst
Reallocated singl_function (elt_size=4) to 100 items from 50.
Reallocated singl_function (elt_size=4) to 100 items from 50.
Reallocated singl_function (elt_size=4) to 100 items from 50.
Reallocated singl_function (elt_size=4) to 100 items from 50.
Reallocated singl_function (elt_size=4) to 100 items from 50.
Reallocated singl_function (elt_size=4) to 100 items from 50.
Reallocated wiz_functions (elt_size=4) to 6000 items from 3000.
Database file #1: oscsNotes.bib
Database file #2: Oscillations.bib
control{REVTEX41Control}, control.key{N/A}, control.author{N/A}, control.editor{N/A}, control.title{N/A}, control.pages{N/A}, control.year{N/A}, control.eprint{N/A}, 
control{apsrev41Control}, control.key{N/A}, control.author{08}, control.editor{1}, control.title{}, control.pages{0}, control.year{1}, control.eprint{N/A}, 
Warning--jnrlst (dependency: not reversed) set 1
Reallocated singl_function (elt_size=4) to 100 items from 50.
merlin.mbs apsrev4-1.bst 2010-07-25 4.21a (PWD, AO, DPC) hacked
Control: key (0) 
Control: author (8) initials jnrlst
Control: editor formatted (1) identically to author
Control: production of article title (-1) disabled
Control: page (0) single
Control: year (1) truncated
Control: production of eprint (0) enabled
You've used 72 entries,
            5847 wiz_defined-function locations,
            2209 strings with 33093 characters,
and the built_in function-call counts, 78231 in all, are:
= -- 4677
> -- 2388
< -- 552
+ -- 731
- -- 601
* -- 12654
:= -- 7402
add.period$ -- 70
call.type$ -- 72
change.case$ -- 280
chr.to.int$ -- 78
cite$ -- 72
duplicate$ -- 7129
empty$ -- 5686
format.name$ -- 1394
if$ -- 15699
int.to.chr$ -- 3
int.to.str$ -- 79
missing$ -- 943
newline$ -- 262
num.names$ -- 210
pop$ -- 2829
preamble$ -- 1
purify$ -- 350
quote$ -- 0
skip$ -- 2785
stack$ -- 0
substring$ -- 2020
swap$ -- 7064
text.length$ -- 291
text.prefix$ -- 0
top$ -- 10
type$ -- 1071
warning$ -- 1
while$ -- 217
width$ -- 0
write$ -- 610
(There was 1 warning)
