\relax 
\providecommand\hyper@newdestlabel[2]{}
\providecommand\HyperFirstAtBeginDocument{\AtBeginDocument}
\HyperFirstAtBeginDocument{\ifx\hyper@anchor\@undefined
\global\let\oldcontentsline\contentsline
\gdef\contentsline#1#2#3#4{\oldcontentsline{#1}{#2}{#3}}
\global\let\oldnewlabel\newlabel
\gdef\newlabel#1#2{\newlabelxx{#1}#2}
\gdef\newlabelxx#1#2#3#4#5#6{\oldnewlabel{#1}{{#2}{#3}}}
\AtEndDocument{\ifx\hyper@anchor\@undefined
\let\contentsline\oldcontentsline
\let\newlabel\oldnewlabel
\fi}
\fi}
\global\let\hyper@last\relax 
\gdef\HyperFirstAtBeginDocument#1{#1}
\providecommand\HyField@AuxAddToFields[1]{}
\providecommand\HyField@AuxAddToCoFields[2]{}
\citation{Pethick2008,Pitaevskii2016}
\citation{Ebner1971}
\citation{Anderson1995,Davis1995,Bradley1995}
\citation{Chin2010}
\citation{Mewes1996,Jin1996}
\citation{Pitaevskii2016}
\citation{Stamper-Kurn1998,Buggle2005}
\citation{Altmeyer2007,Wright2007}
\citation{Stringari1996,Chevy2002}
\citation{Kinast2004,Bartenstein2004,Altmeyer2007a}
\citation{Busch1997,Esry1998,Ho1998,Hall1998a,Bijlsma2000,Capuzzi2001,Yip2001,Goral2002,Pu2002,Svidzinsky2003,Liu2003,Deconinck2004,Rodriguez2004,Navarro2009}
\citation{Vichi1999,Maddaloni2000,Gensemer2001}
\citation{Ferrier-Barbut2014,Delehaye2015,Roy2017,Wu2018}
\citation{DeSalvo2019}
\citation{Modugno2002,Ospelkaus2006}
\citation{Ospelkaus2006a,Papp2008,Shin2008,Lous2018}
\citation{Sommer2011,Valtolina2016}
\citation{Huang2019}
\citation{Stoner1933,Jo2009,Cui2010,Pilati2010,Massignan2011,Chang2011,Pekker2011,Sommer2011,Sanner2012,Massignan2014,Trappe2016,Valtolina2016,Amico2018}
\citation{Sanner2012}
\citation{Chin2010}
\citation{Jo2009}
\citation{Sommer2011,Valtolina2016}
\citation{Vichi1999,Bruun2001,Maruyama2006,Maruyama2007,DeSilva2005}
\citation{Grochowski2017a}
\newlabel{FirstPage}{{}{1}{}{section*.1}{}}
\@writefile{toc}{\contentsline {title}{Collective oscillations of a two-component Fermi gas on the repulsive branch}{1}{section*.2}}
\@writefile{toc}{\contentsline {abstract}{Abstract}{1}{section*.1}}
\@writefile{toc}{\contentsline {section}{\numberline {I}Introduction}{1}{section*.3}}
\citation{Gawryluk2017,Grochowski2017a}
\citation{VonStecher2007,Grochowski2017a}
\citation{Grochowski2017a}
\citation{Gawryluk2017}
\@writefile{toc}{\contentsline {section}{\numberline {II}Time-dependent Hartree-Fock calculations}{2}{section*.4}}
\newlabel{tdhf}{{II}{2}{}{section*.4}{}}
\newlabel{Slater}{{1}{2}{}{equation.2.1}{}}
\newlabel{HFeq}{{2}{2}{}{equation.2.2}{}}
\@writefile{toc}{\contentsline {subsection}{\numberline {A}Initial states -- imaginary time propagation}{2}{section*.5}}
\citation{Vichi1999}
\citation{Vichi1999}
\citation{Vichi1999}
\citation{Trappe2016}
\citation{Trappe2016}
\@writefile{lof}{\contentsline {figure}{\numberline {1}{\ignorespaces Ground-state densities for different values of interaction strength. For weak interaction, clouds stay unpolarized, but for some critical value of repulsion, they enter the ferromagnetic phase. Initially, just above the transition, gas becomes partially polarized only in the center of the trap, being unpolarized on the perimeter. For strong enough interaction, the overlapping part vanishes, leaving the clouds fully separated. }}{3}{figure.1}}
\newlabel{l1}{{1}{3}{Ground-state densities for different values of interaction strength. For weak interaction, clouds stay unpolarized, but for some critical value of repulsion, they enter the ferromagnetic phase. Initially, just above the transition, gas becomes partially polarized only in the center of the trap, being unpolarized on the perimeter. For strong enough interaction, the overlapping part vanishes, leaving the clouds fully separated}{figure.1}{}}
\@writefile{toc}{\contentsline {subsection}{\numberline {B}Radial compression mode}{3}{section*.6}}
\@writefile{lof}{\contentsline {figure}{\numberline {2}{\ignorespaces Frequency of radial monopole mode calculated with the help of four different methods within the nonrenormalized mean field regime: sum rule approach from Ref.\nobreakspace  {}\cite  {Vichi1999} using noninteracting and interacting Thomas-Fermi ground-state density profiles, linearized hydrodynamical equations and time-dependent Hartree-Fock equations. We can see that the latter three give very similar results, while the first on greatly overestimates the frequencies. }}{3}{figure.2}}
\newlabel{comp}{{2}{3}{Frequency of radial monopole mode calculated with the help of four different methods within the nonrenormalized mean field regime: sum rule approach from Ref.~\cite {Vichi1999} using noninteracting and interacting Thomas-Fermi ground-state density profiles, linearized hydrodynamical equations and time-dependent Hartree-Fock equations. We can see that the latter three give very similar results, while the first on greatly overestimates the frequencies}{figure.2}{}}
\@writefile{toc}{\contentsline {paragraph}{\numberline {a}In-phase oscillations}{4}{section*.7}}
\@writefile{toc}{\contentsline {paragraph}{\numberline {b}Out-of-phase oscillations}{4}{section*.8}}
\@writefile{lof}{\contentsline {figure}{\numberline {3}{\ignorespaces  Frequency of radial monopole mode for in-phase perturbation of both fermionic species for varying interaction strength. The critical interaction for which the phase separation occurs reads $k_F a \approx 0.9$. In each of Figs. 3-8 that show consecutive type of oscillations, we present two results. Firstly, filled markers (circles, squares, triangles) are associated with the frequencies that can be recovered from the fit to a sum of sinuses. Such a fit cannot be meaningfully performed for every interaction regime, especially after the transitions, therefore we additionally present Fourier transform of the oscillation run for each of the interaction values. This transform is normalized in such a way that for every interaction strength, the maximum value of transform's absolute value is equaled to $1$. For better visibility, we decide to plot not the absolute value of the FT, but rather FT brought to power $1/3$. }}{4}{figure.3}}
\newlabel{in_phase_radial}{{3}{4}{Frequency of radial monopole mode for in-phase perturbation of both fermionic species for varying interaction strength. The critical interaction for which the phase separation occurs reads $k_F a \approx 0.9$. In each of Figs. 3-8 that show consecutive type of oscillations, we present two results. Firstly, filled markers (circles, squares, triangles) are associated with the frequencies that can be recovered from the fit to a sum of sinuses. Such a fit cannot be meaningfully performed for every interaction regime, especially after the transitions, therefore we additionally present Fourier transform of the oscillation run for each of the interaction values. This transform is normalized in such a way that for every interaction strength, the maximum value of transform's absolute value is equaled to $1$. For better visibility, we decide to plot not the absolute value of the FT, but rather FT brought to power $1/3$}{figure.3}{}}
\@writefile{lof}{\contentsline {figure}{\numberline {4}{\ignorespaces  Frequency of radial monopole mode for out-of-phase perturbation of both fermionic species for varying interaction strength. }}{4}{figure.4}}
\newlabel{out_of_phase_radial}{{4}{4}{Frequency of radial monopole mode for out-of-phase perturbation of both fermionic species for varying interaction strength}{figure.4}{}}
\citation{Domps1998}
\citation{Karpiuk2002}
\@writefile{toc}{\contentsline {subsection}{\numberline {C}Quadrupole modes}{5}{section*.9}}
\@writefile{lof}{\contentsline {figure}{\numberline {5}{\ignorespaces  Frequency of compression quadrupole mode for in-phase perturbation of both fermionic species for varying interaction strength. }}{5}{figure.5}}
\newlabel{in_phase_quad_rad}{{5}{5}{Frequency of compression quadrupole mode for in-phase perturbation of both fermionic species for varying interaction strength}{figure.5}{}}
\@writefile{lof}{\contentsline {figure}{\numberline {6}{\ignorespaces  Frequency of compression quadrupole mode for out-of-phase perturbation of both fermionic species for varying interaction strength. }}{5}{figure.6}}
\newlabel{out_of_phase_quad_rad}{{6}{5}{Frequency of compression quadrupole mode for out-of-phase perturbation of both fermionic species for varying interaction strength}{figure.6}{}}
\@writefile{toc}{\contentsline {section}{\numberline {III}Comparison to hydrodynamical approach}{5}{section*.10}}
\newlabel{hyd}{{III}{5}{}{section*.10}{}}
\citation{Trappe2016}
\citation{Madelung1927}
\@writefile{lof}{\contentsline {figure}{\numberline {7}{\ignorespaces  Frequency of radial quadrupole mode for in-phase perturbation of both fermionic species for varying interaction strength. }}{6}{figure.7}}
\newlabel{in_phase_quad_xy}{{7}{6}{Frequency of radial quadrupole mode for in-phase perturbation of both fermionic species for varying interaction strength}{figure.7}{}}
\@writefile{lof}{\contentsline {figure}{\numberline {8}{\ignorespaces  Frequency of radial quadrupole mode for out-of-phase perturbation of both fermionic species for varying interaction strength. }}{6}{figure.8}}
\newlabel{out_of_phase_quad_xy}{{8}{6}{Frequency of radial quadrupole mode for out-of-phase perturbation of both fermionic species for varying interaction strength}{figure.8}{}}
\newlabel{TwoCompPsi}{{12}{6}{}{equation.3.12}{}}
\newlabel{TwoCompMadelungHydro}{{13}{6}{}{equation.3.13}{}}
\newlabel{pseudopsi}{{14}{6}{}{equation.3.14}{}}
\bibcite{Pethick2008}{{1}{2008}{{Pethick\ and\ Smith}}{{}}}
\bibcite{Pitaevskii2016}{{2}{2016}{{Pitaevskii\ and\ Stringari}}{{}}}
\bibcite{Ebner1971}{{3}{1971}{{Ebner\ and\ Edwards}}{{}}}
\bibcite{Anderson1995}{{4}{1995}{{Anderson\ \emph  {et~al.}}}{{Anderson, Ensher, Matthews, Wieman,\ and\ Cornell}}}
\bibcite{Davis1995}{{5}{1995}{{Davis\ \emph  {et~al.}}}{{Davis, Mewes, Andrews, van Druten, Durfee, Kurn,\ and\ Ketterle}}}
\bibcite{Bradley1995}{{6}{1995}{{Bradley\ \emph  {et~al.}}}{{Bradley, Sackett, Tollett,\ and\ Hulet}}}
\bibcite{Chin2010}{{7}{2010}{{Chin\ \emph  {et~al.}}}{{Chin, Grimm, Julienne,\ and\ Tiesinga}}}
\bibcite{Mewes1996}{{8}{1996}{{Mewes\ \emph  {et~al.}}}{{Mewes, Andrews, van Druten, Kurn, Durfee, Townsend,\ and\ Ketterle}}}
\bibcite{Jin1996}{{9}{1996}{{Jin\ \emph  {et~al.}}}{{Jin, Ensher, Matthews, Wieman,\ and\ Cornell}}}
\bibcite{Stamper-Kurn1998}{{10}{1998}{{Stamper-Kurn\ \emph  {et~al.}}}{{Stamper-Kurn, Miesner, Inouye, Andrews,\ and\ Ketterle}}}
\bibcite{Buggle2005}{{11}{2005}{{Buggle\ \emph  {et~al.}}}{{Buggle, Pedri, von Klitzing,\ and\ Walraven}}}
\bibcite{Altmeyer2007}{{12}{2007{}}{{Altmeyer\ \emph  {et~al.}}}{{Altmeyer, Riedl, Wright, Kohstall, Denschlag,\ and\ Grimm}}}
\bibcite{Wright2007}{{13}{2007}{{Wright\ \emph  {et~al.}}}{{Wright, Riedl, Altmeyer, Kohstall, { Guajardo}, Denschlag,\ and\ Grimm}}}
\bibcite{Stringari1996}{{14}{1996}{{Stringari}}{{}}}
\bibcite{Chevy2002}{{15}{2002}{{Chevy\ \emph  {et~al.}}}{{Chevy, Bretin, Rosenbusch, Madison,\ and\ Dalibard}}}
\bibcite{Kinast2004}{{16}{2004}{{Kinast\ \emph  {et~al.}}}{{Kinast, Hemmer, Gehm, Turlapov,\ and\ Thomas}}}
\bibcite{Bartenstein2004}{{17}{2004}{{Bartenstein\ \emph  {et~al.}}}{{Bartenstein, Altmeyer, Riedl, Jochim, Chin, Denschlag,\ and\ Grimm}}}
\bibcite{Altmeyer2007a}{{18}{2007{}}{{Altmeyer\ \emph  {et~al.}}}{{Altmeyer, Riedl, Kohstall, Wright, Geursen, Bartenstein, Chin, Denschlag,\ and\ Grimm}}}
\bibcite{Busch1997}{{19}{1997}{{Busch\ \emph  {et~al.}}}{{Busch, Cirac, P{\'{e}}rez-Garc{\'{i}}a,\ and\ Zoller}}}
\bibcite{Esry1998}{{20}{1998}{{Esry\ and\ Greene}}{{}}}
\bibcite{Ho1998}{{21}{1998}{{Ho}}{{}}}
\bibcite{Hall1998a}{{22}{1998}{{Hall\ \emph  {et~al.}}}{{Hall, Matthews, Ensher, Wieman,\ and\ Cornell}}}
\bibcite{Bijlsma2000}{{23}{2000}{{Bijlsma\ \emph  {et~al.}}}{{Bijlsma, Heringa,\ and\ Stoof}}}
\bibcite{Capuzzi2001}{{24}{2001}{{Capuzzi\ and\ Hern{\'{a}}ndez}}{{}}}
\bibcite{Yip2001}{{25}{2001}{{Yip}}{{}}}
\bibcite{Goral2002}{{26}{2002}{{G{\'{o}}ral\ and\ Santos}}{{}}}
\bibcite{Pu2002}{{27}{2002}{{Pu\ \emph  {et~al.}}}{{Pu, Zhang, Wilkens,\ and\ Meystre}}}
\bibcite{Svidzinsky2003}{{28}{2003}{{Svidzinsky\ and\ Chui}}{{}}}
\bibcite{Liu2003}{{29}{2003}{{Liu\ and\ Hu}}{{}}}
\bibcite{Deconinck2004}{{30}{2004}{{Deconinck\ \emph  {et~al.}}}{{Deconinck, Kevrekidis, Nistazakis,\ and\ Frantzeskakis}}}
\bibcite{Rodriguez2004}{{31}{2004}{{Rodr{\'{i}}guez\ \emph  {et~al.}}}{{Rodr{\'{i}}guez, Pedri, T{\"{o}}rm{\"{a}},\ and\ Santos}}}
\bibcite{Navarro2009}{{32}{2009}{{Navarro\ \emph  {et~al.}}}{{Navarro, Carretero-Gonz{\'{a}}lez,\ and\ Kevrekidis}}}
\@writefile{toc}{\contentsline {section}{\numberline {IV}Conclusions}{7}{section*.11}}
\newlabel{conc}{{IV}{7}{}{section*.11}{}}
\@writefile{toc}{\contentsline {section}{\numberline {}Acknowledgments}{7}{section*.12}}
\@writefile{toc}{\contentsline {section}{\numberline {}References}{7}{section*.13}}
\bibcite{Vichi1999}{{33}{1999}{{Vichi\ and\ Stringari}}{{}}}
\bibcite{Maddaloni2000}{{34}{2000}{{Maddaloni\ \emph  {et~al.}}}{{Maddaloni, Modugno, Fort, Minardi,\ and\ Inguscio}}}
\bibcite{Gensemer2001}{{35}{2001}{{Gensemer\ and\ Jin}}{{}}}
\bibcite{Ferrier-Barbut2014}{{36}{2014}{{Ferrier-Barbut\ \emph  {et~al.}}}{{Ferrier-Barbut, Delehaye, Laurent, Grier, Pierce, Rem, Chevy,\ and\ Salomon}}}
\bibcite{Delehaye2015}{{37}{2015}{{Delehaye\ \emph  {et~al.}}}{{Delehaye, Laurent, Ferrier-Barbut, Jin, Chevy,\ and\ Salomon}}}
\bibcite{Roy2017}{{38}{2017}{{Roy\ \emph  {et~al.}}}{{Roy, Green, Bowler,\ and\ Gupta}}}
\bibcite{Wu2018}{{39}{2018}{{Wu\ \emph  {et~al.}}}{{Wu, Yao, Liu, Wang, Wang, Chen, Deng, Chen,\ and\ Pan}}}
\bibcite{DeSalvo2019}{{40}{2019}{{DeSalvo\ \emph  {et~al.}}}{{DeSalvo, Patel, Cai,\ and\ Chin}}}
\bibcite{Modugno2002}{{41}{2002}{{Modugno\ \emph  {et~al.}}}{{Modugno, Roati, Riboli, Ferlaino, Brecha,\ and\ Inguscio}}}
\bibcite{Ospelkaus2006}{{42}{2006{}}{{Ospelkaus\ \emph  {et~al.}}}{{Ospelkaus, Ospelkaus, Sengstock,\ and\ Bongs}}}
\bibcite{Ospelkaus2006a}{{43}{2006{}}{{Ospelkaus\ \emph  {et~al.}}}{{Ospelkaus, Ospelkaus, Humbert, Sengstock,\ and\ Bongs}}}
\bibcite{Papp2008}{{44}{2008}{{Papp\ \emph  {et~al.}}}{{Papp, Pino,\ and\ Wieman}}}
\bibcite{Shin2008}{{45}{2008}{{Shin\ \emph  {et~al.}}}{{Shin, Schunck, Schirotzek,\ and\ Ketterle}}}
\bibcite{Lous2018}{{46}{2018}{{Lous\ \emph  {et~al.}}}{{Lous, Fritsche, Jag, Lehmann, Kirilov, Huang,\ and\ Grimm}}}
\bibcite{Sommer2011}{{47}{2011}{{Sommer\ \emph  {et~al.}}}{{Sommer, Ku, Roati,\ and\ Zwierlein}}}
\bibcite{Valtolina2016}{{48}{2017}{{Valtolina\ \emph  {et~al.}}}{{Valtolina, Scazza, Amico, Burchianti, Recati, Enss, Inguscio, Zaccanti,\ and\ Roati}}}
\bibcite{Huang2019}{{49}{2019}{{Huang\ \emph  {et~al.}}}{{Huang, Fritsche, Lous, Baroni, Walraven, Kirilov,\ and\ Grimm}}}
\bibcite{Stoner1933}{{50}{1933}{{Stoner}}{{}}}
\bibcite{Jo2009}{{51}{2009}{{Jo\ \emph  {et~al.}}}{{Jo, Lee, Choi, Christensen, Kim, Thywissen, Pritchard,\ and\ Ketterle}}}
\bibcite{Cui2010}{{52}{2010}{{Cui\ and\ Zhai}}{{}}}
\bibcite{Pilati2010}{{53}{2010}{{Pilati\ \emph  {et~al.}}}{{Pilati, Bertaina, Giorgini,\ and\ Troyer}}}
\bibcite{Massignan2011}{{54}{2011}{{Massignan\ and\ Bruun}}{{}}}
\bibcite{Chang2011}{{55}{2011}{{Chang\ \emph  {et~al.}}}{{Chang, Randeria,\ and\ Trivedi}}}
\bibcite{Pekker2011}{{56}{2011}{{Pekker\ \emph  {et~al.}}}{{Pekker, Babadi, Sensarma, Zinner, Pollet, Zwierlein,\ and\ Demler}}}
\bibcite{Sanner2012}{{57}{2012}{{Sanner\ \emph  {et~al.}}}{{Sanner, Su, Huang, Keshet, Gillen,\ and\ Ketterle}}}
\bibcite{Massignan2014}{{58}{2014}{{Massignan\ \emph  {et~al.}}}{{Massignan, Zaccanti,\ and\ Bruun}}}
\bibcite{Trappe2016}{{59}{2016}{{Trappe\ \emph  {et~al.}}}{{Trappe, Grochowski, Brewczyk,\ and\ Rz{\c {a}}{\.{z}}ewski}}}
\bibcite{Amico2018}{{60}{2018}{{Amico\ \emph  {et~al.}}}{{Amico, Scazza, Valtolina, Tavares, Ketterle, Inguscio, Roati,\ and\ Zaccanti}}}
\bibcite{Bruun2001}{{61}{2001}{{Bruun}}{{}}}
\bibcite{Maruyama2006}{{62}{2006}{{Tomoyuki\ and\ Bertsch}}{{}}}
\bibcite{Maruyama2007}{{63}{2007}{{Maruyama\ and\ Nishimura}}{{}}}
\bibcite{DeSilva2005}{{64}{2005}{{{De Silva}\ and\ Mueller}}{{}}}
\bibcite{Grochowski2017a}{{65}{2017}{{Grochowski\ \emph  {et~al.}}}{{Grochowski, Karpiuk, Brewczyk,\ and\ Rz{\c {a}}{\.{z}}ewski}}}
\bibcite{Gawryluk2017}{{66}{2018}{{Gawryluk\ \emph  {et~al.}}}{{Gawryluk, Karpiuk, Gajda, Rz{\c {a}}{\.{z}}ewski,\ and\ Brewczyk}}}
\bibcite{VonStecher2007}{{67}{2007}{{von Stecher\ and\ Greene}}{{}}}
\bibcite{Domps1998}{{68}{1998}{{Domps\ \emph  {et~al.}}}{{Domps, Reinhard,\ and\ Suraud}}}
\bibcite{Karpiuk2002}{{69}{2002}{{Karpiuk\ \emph  {et~al.}}}{{Karpiuk, Brewczyk, Dobrek, Baranov, Lewenstein,\ and\ Rza̧{\.{z}}ewski}}}
\bibcite{Madelung1927}{{70}{1927}{{Madelung}}{{}}}
\bibstyle{apsrev4-1}
\citation{REVTEX41Control}
\citation{apsrev41Control}
\newlabel{LastBibItem}{{70}{8}{}{section*.13}{}}
\newlabel{LastPage}{{}{8}{}{}{}}
